ID,Area,Stress
sd10_20x1aL.png,3032.987862,1
sd10_20x1bL.png,2772.669826,1
sd10_20x1cL.png,2567.509444,1
sd10_20x3L.png,2583.083839,1
sd10_20x4L.png,1614.819884,1
sd10_20x6L.png,4428.928634,1
sd10_20x7L.png,2567.509444,1
sd11_20x1aL.png,1902.859461,1
sd11_20x1bL.png,3507.031177,1
sd11_20x2aL.png,3417.461661,1
sd11_20x2bL.png,2594.208226,1
sd11_20x2cL.png,2921.810055,1
sd11_20x3aL.png,2991.605356,1
sd11_20x3bL.png,2547.473326,1
sd11_20x3cL.png,3335.000987,1
sd11_20x4aL.png,1848.200325,1
sd11_20x4bL.png,1901.011582,1
sd11_20x4cL.png,2506.268807,1
sd12_20x1L.png,5053.052577,1
sd12_20x2L.png,4112.127245,1
sd12_20x3L.png,6443.850062,1
sd12_20x4L.png,4169.945183,1
sd12_20x5aL.png,5084.107134,1
sd12_20x5L.png,4180.247913,1
sd12_20x6aL.png,8.088416691,1
sd12_20x6bL.png,4.351471545,1
sd13_20x1L.png,2147.00715,1
sd13_20x2L.png,4405.605322,1
sd13_20x3L.png,4179.540805,1
sd13_20x4L.png,3730.078044,1
sd13_20x5L.png,3747.860561,1
sd13_20x6L.png,3285.586028,1
sd1_20x10L.png0.jpg,2892.426982,1
sd1_20x10L.png189.jpg,2892.426982,1
sd1_20x10L.tiff191.jpg,2891.22163,1
sd1_20x11L.png194.jpg,2577.782631,1
sd1_20x11L.png2.jpg,2577.782631,1
sd1_20x11L.tiff196.jpg,2577.118024,1
sd1_20x12L.png199.jpg,3849.224453,1
sd1_20x12L.png4.jpg,3849.224453,1
sd1_20x12L.tiff201.jpg,3848.485489,1
sd1_20x13L.png204.jpg,3173.146625,1
sd1_20x13L.png6.jpg,3173.146625,1
sd1_20x13L.tiff206.jpg,3172.582055,1
sd1_20x14L.png209.jpg,2947.121246,1
sd1_20x14L.png8.jpg,2947.121246,1
sd1_20x14L.tiff213.jpg,2946.179564,1
sd1_20x15L.png12.jpg,2048.886919,1
sd1_20x15L.png14.jpg,2750.02951,1
sd1_20x15L.png16.jpg,3925.921129,1
sd1_20x15L.png218.jpg,2048.886919,1
sd1_20x15L.png220.jpg,2750.02951,1
sd1_20x15L.png222.jpg,3925.921129,1
sd1_20x15L.tiff224.jpg,3925.517672,1
sd1_20x15L.tiff226.jpg,2749.532333,1
sd1_20x15L.tiff228.jpg,2048.071726,1
sd1_20x1L.png18.jpg,1707.178544,1
sd1_20x1L.png20.jpg,2180.787519,1
sd1_20x1L.png232.jpg,2180.787519,1
sd1_20x1L.tiff234.jpg,2179.528715,1
sd1_20x1L.tiff236.jpg,1706.38089,1
sd1_20x2L.png22.jpg,1787.160439,1
sd1_20x2L.png239.jpg,1787.160439,1
sd1_20x2L.tiff241.jpg,1785.402714,1
sd1_20x3L.png24.jpg,3209.686532,1
sd1_20x3L.png244.jpg,3209.686532,1
sd1_20x3L.tiff246.jpg,3207.162302,1
sd1_20x4L.png249.jpg,2404.432544,1
sd1_20x4L.png251.jpg,2692.918489,1
sd1_20x4L.png26.jpg,2404.432544,1
sd1_20x4L.png28.jpg,2692.918489,1
sd1_20x4L.tiff253.jpg,2692.139238,1
sd1_20x4L.tiff255.jpg,2403.200344,1
sd1_20x5L.png258.jpg,1847.524496,1
sd1_20x5L.png30.jpg,1847.524496,1
sd1_20x5L.tiff260.jpg,1846.205025,1
sd1_20x6L.png263.jpg,2286.809423,1
sd1_20x6L.png32.jpg,2286.809423,1
sd1_20x6L.tiff265.jpg,2285.545476,1
sd1_20x7L.png268.jpg,1594.355528,1
sd1_20x7L.png270.jpg,1696.297592,1
sd1_20x7L.png34.jpg,1594.355528,1
sd1_20x7L.png36.jpg,1696.297592,1
sd1_20x7L.tiff272.jpg,1695.041678,1
sd1_20x7L.tiff274.jpg,1593.212514,1
sd1_20x8L.png277.jpg,2981.446178,1
sd1_20x8L.png279.jpg,2703.637059,1
sd1_20x8L.png281.jpg,3069.443201,1
sd1_20x8L.png38.jpg,2981.446178,1
sd1_20x8L.png40.jpg,2703.637059,1
sd1_20x8L.png42.jpg,3069.443201,1
sd1_20x8L.tiff283.jpg,3068.295116,1
sd1_20x8L.tiff285.jpg,2703.441048,1
sd1_20x8L.tiff287.jpg,2980.856648,1
sd1_20x9L.png290.jpg,3618.60704,1
sd1_20x9L.png44.jpg,3618.60704,1
sd1_20x9L.tiff292.jpg,3617.89609,1
sd2_20x10L.png312.jpg,4062.024316,1
sd2_20x10L.png46.jpg,4062.024316,1
sd2_20x10L.tiff314.jpg,4061.446767,1
sd2_20x1L.png316.jpg,3347.171786,1
sd2_20x1L.png48.jpg,3347.171786,1
sd2_20x1L.tiff318.jpg,3345.765598,1
sd2_20x2L.png321.jpg,3253.011664,1
sd2_20x2L.png323.jpg,2257.387375,1
sd2_20x2L.png50.jpg,3253.011664,1
sd2_20x2L.png52.jpg,2257.387375,1
sd2_20x2L.tiff325.jpg,2257.575745,1
sd2_20x2L.tiff327.jpg,3251.687692,1
sd2_20x3L.png330.jpg,5102.34549,1
sd2_20x3L.png54.jpg,5102.34549,1
sd2_20x3L.tiff332.jpg,5101.064266,1
sd2_20x4L.png335.jpg,2367.890002,1
sd2_20x4L.png337.jpg,4569.022016,1
sd2_20x4L.png56.jpg,2367.890002,1
sd2_20x4L.png58.jpg,4569.022016,1
sd2_20x4L.tiff339.jpg,4568.143135,1
sd2_20x4L.tiff341.jpg,2367.886147,1
sd2_20x5L.png344.jpg,3367.199342,1
sd2_20x5L.png346.jpg,3183.040247,1
sd2_20x5L.png60.jpg,3367.199342,1
sd2_20x5L.png62.jpg,3183.040247,1
sd2_20x5L.tiff348.jpg,3182.72192,1
sd2_20x5L.tiff350.jpg,3366.464243,1
sd2_20x6L.png353.jpg,3919.99407,1
sd2_20x6L.png355.jpg,4752.763061,1
sd2_20x6L.png64.jpg,3919.99407,1
sd2_20x6L.png66.jpg,4752.763061,1
sd2_20x6L.tiff361.jpg,4751.101744,1
sd2_20x6L.tiff363.jpg,3919.037291,1
sd2_20x7L.png370.jpg,5911.604175,1
sd2_20x7L.png372.jpg,2943.528742,1
sd2_20x7L.png72.jpg,5911.604175,1
sd2_20x7L.png74.jpg,2943.528742,1
sd2_20x7L.tiff374.jpg,5911.076523,1
sd2_20x7L.tiff376.jpg,2943.195827,1
sd2_20x8L.png379.jpg,5540.400718,1
sd2_20x8L.png381.jpg,5330.144218,1
sd2_20x8L.png383.jpg,3604.337202,1
sd2_20x8L.png76.jpg,5540.400718,1
sd2_20x8L.png78.jpg,5330.144218,1
sd2_20x8L.png80.jpg,3604.337202,1
sd2_20x8L.tiff385.jpg,3603.931153,1
sd2_20x8L.tiff387.jpg,5329.173799,1
sd2_20x8L.tiff389.jpg,5539.527695,1
sd2_20x9L.png82.jpg,3541.577138,1
sd3_20x10L.png0.jpg,5335.099899,1
sd3_20x1L.png2.jpg,4899.680145,1
sd3_20x2L.png4.jpg,5031.000998,1
sd3_20x3L.png6.jpg,5121.734144,1
sd3_20x3L.png8.jpg,4357.914757,1
sd3_20x4L.png10.jpg,4478.926823,1
sd3_20x5L.png12.jpg,4877.363312,1
sd3_20x5L.png14.jpg,4229.557219,1
sd3_20x6L.png16.jpg,4240.565991,1
sd3_20x7L.png18.jpg,2930.617412,1
sd3_20x7L.png20.jpg,5331.166075,1
sd3_20x8L.png22.jpg,5376.606374,1
sd3_20x9L.png24.jpg,6953.423249,1
sd3_20x9L.png26.jpg,3944.358652,1
sd5_20x10L.png28.jpg,4141.74864,1
sd5_20x10L.png30.jpg,3756.964881,1
sd5_20x10L.png32.jpg,3455.494593,1
sd5_20x10L.png34.jpg,7335.406514,1
sd5_20x11L.png40.jpg,5121.13615,1
sd5_20x11L.png42.jpg,2322.343623,1
sd5_20x12L.png44.jpg,5343.550517,1
sd5_20x12L.png46.jpg,4123.470348,1
sd5_20x13L.png48.jpg,2582.011871,1
sd5_20x13L.png50.jpg,3681.141461,1
sd5_20x13L.png52.jpg,2914.48284,1
sd5_20x1L.png54.jpg,2975.289948,1
sd5_20x2L.png56.jpg,5486.466652,1
sd5_20x2L.png58.jpg,3745.49433,1
sd5_20x2L.png62.jpg,2554.288016,1
sd6_20x1L.png64.jpg,2759.957703,1
sd6_20x1L.png66.jpg,3945.101399,1
SD6_20X2L.png68.jpg,5764.507801,1
SD6_20X2L.png70.jpg,4196.832752,1
sd6_20x3L.png72.jpg,3340.483444,1
sd6_20x4L.png74.jpg,6537.802249,1
sd6_20x5L.png78.jpg,4418.602515,1
sd6_20x5L.png80.jpg,5161.257258,1
sd6_20x5L.png82.jpg,4880.976632,1
sd6_20x6L.png84.jpg,3555.518207,1
sd6_20x7L.png86.jpg,4537.48374,1
sd6_20x8L.png88.jpg,5947.226368,1
sd6_20x9L.png90.jpg,2337.502588,1
sd7_20x1L.png92.jpg,1953.8828,1
sd7_20x2L.png94.jpg,3118.519329,1
sd7_20x3L.png96.jpg,3501.535697,1
sd7_20x4L.png98.jpg,2704.165858,1
sd7_20x5L.png100.jpg,2119.065065,1
sd7_20x5L.png102.jpg,2131.44309,1
sd7_20x6L.png104.jpg,3975.927338,1
sd7_20x7L.png106.jpg,3850.120582,1
sd7_20x8L.png108.jpg,5676.55879,1
sd7_20x8L.png110.jpg,4612.74216,1
sd9_20x10L.png112.jpg,6277.332128,1
sd9_20x10L.png114.jpg,9073.284857,1
sd9_20x11L.png116.jpg,5804.639192,1
sd9_20x11L.png118.jpg,5077.601665,1
sd9_20x11L.png120.jpg,4843.431895,1
sd9_20x12L.png122.jpg,8472.155983,1
sd9_20x13L.png124.jpg,5685.707127,1
sd9_20x13L.png126.jpg,6430.334115,1
sd9_20x13L.png128.jpg,6067.181165,1
sd9_20x14L.png130.jpg,5838.677138,1
sd9_20x14L.png132.jpg,3605.666087,1
sd9_20x15L.png134.jpg,3002.316527,1
sd9_20x16L.png136.jpg,5551.486202,1
sd9_20x16L.png138.jpg,4783.13684,1
sd9_20x16L.png140.jpg,5217.421061,1
sd9_20x17L.png142.jpg,3739.053993,1
sd9_20x17L.png144.jpg,6385.824808,1
sd9_20x18L.png146.jpg,3176.698157,1
sd9_20x1L.png148.jpg,7829.688829,1
sd9_20x1L.png150.jpg,6266.565786,1
sd9_20x2L.png152.jpg,7829.688829,1
sd9_20x2L.png154.jpg,6266.565786,1
sd9_20x3L.png156.jpg,5618.72236,1
sd9_20x4L.png158.jpg,6750.395026,1
sd9_20x4L.png160.jpg,4696.448165,1
sd9_20x5L.png162.jpg,4564.840995,1
sd9_20x5L.png164.jpg,6196.728703,1
sd9_20x6L.png166.jpg,8488.947359,1
sd9_20x6L.png168.jpg,4966.43315,1
sd9_20x7L.png170.jpg,3633.444306,1
sd9_20x8L.png172.jpg,8105.60911,1
sd9_20x8L.png174.jpg,7590.526835,1
sd9_20x9L.png176.jpg,7752.151989,1
sd9_20x9L.png178.jpg,5087.175538,1
10.jpg,3557.410786,2
100.jpg,3045.799711,2
101.jpg,4143.685071,2
102.jpg,2640.05634,2
103.jpg,4998.462959,2
105.jpg,3428.044038,2
107.jpg,2748.922392,2
108.jpg,5940.821875,2
109.jpg,3715.895396,2
11.jpg,3383.910908,2
110.jpg,3049.119586,2
111.jpg,3647.166519,2
112.jpg,3163.753158,2
114.jpg,2724.857986,2
115.jpg,2993.854772,2
116.jpg,3513.850423,2
117.jpg,2341.666041,2
118.jpg,3717.833567,2
12.jpg,3341.261779,2
120.jpg,2307.796051,2
121.jpg,2923.379611,2
122.jpg,2486.366334,2
123.jpg,3485.745824,2
124.jpg,3647.425297,2
125.jpg,2578.561092,2
127.jpg,3843.624692,2
128.jpg,4264.889769,2
129.jpg,1873.688956,2
13.jpg,3341.261779,2
130.jpg,4053.367767,2
131.jpg,3170.1396,2
132.jpg,2228.572622,2
133.jpg,2657.909959,2
134.jpg,2772.215453,2
135.jpg,3519.739984,2
138.jpg,5321.048932,2
139.jpg,3402.219052,2
14.jpg,6551.285701,2
140.jpg,3691.334853,2
142.jpg,5113.145404,2
143.jpg,3155.386484,2
145.jpg,2827.550703,2
147.jpg,2446.290713,2
148.jpg,2777.831744,2
149.jpg,4548.047583,2
15.jpg,4057.723395,2
150.jpg,1706.304481,2
152.jpg,1651.177373,2
153.jpg,5346.074745,2
154.jpg,4792.841187,2
155.jpg,2898.119295,2
156.jpg,2852.586548,2
157.jpg,2951.040555,2
158.jpg,1339.464209,2
159.jpg,2662.179205,2
16.jpg,1359.735346,2
160.jpg,2901.507045,2
162.jpg,2966.804529,2
163.jpg,3607.577899,2
164.jpg,2836.013358,2
165.jpg,3997.924175,2
166.jpg,3461.540789,2
167.jpg,6752.832419,2
168.jpg,3569.612703,2
169.jpg,3227.610931,2
17.jpg,3391.831034,2
170.jpg,3841.401191,2
171.jpg,3569.612703,2
172.jpg,3227.610931,2
173.jpg,3841.401191,2
174.jpg,3689.277776,2
175.jpg,3981.044154,2
176.jpg,4183.768464,2
177.jpg,4011.642397,2
178.jpg,4215.806636,2
179.jpg,4088.465631,2
18.jpg,7018.418256,2
180.jpg,5615.615474,2
181.jpg,5148.619033,2
182.jpg,2749.03066,2
184.jpg,2930.215976,2
185.jpg,4411.921549,2
186.jpg,4482.320868,2
187.jpg,2947.03066,2
188.jpg,6884.379917,2
189.jpg,5837.079742,2
19.jpg,2708.053723,2
190.jpg,4420.402274,2
191.jpg,2649.164261,2
192.jpg,3100.317451,2
193.jpg,2832.620711,2
194.jpg,3697.760656,2
195.jpg,2771.106524,2
197.jpg,2506.391159,2
198.jpg,3436.53344,2
199.jpg,3723.95726,2
2.jpg,4011.096766,2
20.jpg,2093.601781,2
200.jpg,3697.760656,2
201.jpg,6571.392673,2
202.jpg,3554.342033,2
203.jpg,3879.035343,2
204.jpg,4274.154869,2
205.jpg,4262.079228,2
206.jpg,8316.777474,2
207.jpg,6168.726371,2
208.jpg,4310.346567,2
209.jpg,5348.859934,2
21.jpg,2295.063959,2
210.jpg,5504.339027,2
211.jpg,5257.926327,2
212.jpg,8554.693589,2
213.jpg,3967.146383,2
214.jpg,4358.883303,2
215.jpg,4400.581552,2
216.jpg,5414.835958,2
217.jpg,3254.785847,2
218.jpg,3532.481085,2
219.jpg,4519.418789,2
22.jpg,1847.240543,2
220.jpg,3464.766172,2
222.jpg,3185.485809,2
223.jpg,2573.423887,2
224.jpg,4520.483132,2
225.jpg,4201.667541,2
23.jpg,2600.508672,2
24.jpg,3723.312604,2
25.jpg,2777.572957,2
26.jpg,4245.862267,2
27.jpg,2487.450666,2
28.jpg,2779.57791,2
29.jpg,3472.610733,2
3.jpg,3860.699695,2
30.jpg,1096.113794,2
31.jpg,1902.342331,2
32.jpg,1495.865355,2
33.jpg,1701.546618,2
34.jpg,1569.795953,2
35.jpg,2799.446402,2
36.jpg,2071.813693,2
37.jpg,2178.960183,2
38.jpg,2368.160999,2
4.jpg,5080.491043,2
40.jpg,1256.354998,2
41.jpg,2709.082044,2
42.jpg,7265.322986,2
43.jpg,5117.121873,2
44.jpg,2338.026934,2
45.jpg,1843.332834,2
46.jpg,1715.450098,2
47.jpg,2246.098512,2
49.jpg,2959.110542,2
5.jpg,4154.038234,2
50.jpg,2079.029963,2
51.jpg,3734.258994,2
54.jpg,2047.764178,2
55.jpg,2085.081058,2
56.jpg,2361.386286,2
59.jpg,2598.278881,2
6.jpg,3477.343029,2
61.jpg,3149.93161,2
62.jpg,2579.798991,2
63.jpg,1547.895457,2
64.jpg,1682.363117,2
65.jpg,1824.502877,2
69.jpg,2338.193789,2
7.jpg,4454.776015,2
70.jpg,3534.075709,2
71.jpg,3512.164576,2
72.jpg,3548.104914,2
73.jpg,2279.801802,2
74.jpg,4128.435553,2
76.jpg,4340.341717,2
77.jpg,2396.994085,2
78.jpg,2320.802369,2
0.jpg,2889.104498,3
1.jpg,2752.723175,3
10.jpg,4125.437647,3
100.jpg,3311.290578,3
101.jpg,3421.365688,3
102.jpg,3550.741874,3
103.jpg,2261.961205,3
104.jpg,3784.45768,3
105.jpg,2194.165433,3
106.jpg,3989.05988,3
107.jpg,2291.503664,3
108.jpg,1175.561334,3
109.jpg,1766.696501,3
11.jpg,4531.354908,3
110.jpg,5146.054508,3
111.jpg,1582.053777,3
112.jpg,3285.552191,3
113.jpg,1517.240529,3
114.jpg,2192.79258,3
115.jpg,3224.75236,3
116.jpg,3720.465656,3
117.jpg,2612.947222,3
118.jpg,1934.182396,3
119.jpg,3209.593833,3
12.jpg,4451.153614,3
120.jpg,3433.629603,3
121.jpg,2899.694844,3
122.jpg,1759.53045,3
123.jpg,3860.873008,3
124.jpg,4550.766033,3
125.jpg,1826.688255,3
126.jpg,2049.347359,3
127.jpg,4061.969349,3
128.jpg,2166.471596,3
129.jpg,1681.117015,3
13.jpg,6407.371897,3
130.jpg,3034.638259,3
131.jpg,2742.028161,3
132.jpg,2340.617288,3
133.jpg,3156.140464,3
134.jpg,2415.446929,3
135.jpg,3099.377438,3
136.jpg,2130.477651,3
137.jpg,5247.055126,3
138.jpg,3621.22661,3
139.jpg,3466.706747,3
14.jpg,4062.412822,3
140.jpg,2397.125022,3
141.jpg,1950.843609,3
142.jpg,2421.49912,3
143.jpg,3726.11473,3
144.jpg,2478.050696,3
145.jpg,5145.816382,3
146.jpg,4219.788052,3
147.jpg,3465.057542,3
148.jpg,3080.822235,3
149.jpg,2088.862779,3
15.jpg,8341.460263,3
150.jpg,2200.797726,3
151.jpg,2818.848475,3
152.jpg,2200.010254,3
153.jpg,2976.603457,3
154.jpg,2145.789099,3
155.jpg,1814.45984,3
156.jpg,2174.865601,3
157.jpg,2061.709421,3
158.jpg,3080.833942,3
159.jpg,4087.155655,3
16.jpg,1776.225937,3
160.jpg,4284.278717,3
161.jpg,3024.903607,3
162.jpg,2072.745464,3
163.jpg,2139.220482,3
164.jpg,1859.547655,3
165.jpg,2337.04447,3
166.jpg,2468.686212,3
167.jpg,2044.479841,3
168.jpg,1217.698026,3
169.jpg,1701.729424,3
17.jpg,1360.590608,3
170.jpg,2086.290104,3
171.jpg,3122.978492,3
173.jpg,2259.152679,3
174.jpg,2252.055639,3
175.jpg,3112.870591,3
18.jpg,2619.944373,3
19.jpg,6438.023766,3
2.jpg,2042.507064,3
20.jpg,4358.309799,3
21.jpg,4618.433189,3
22.jpg,5758.550054,3
26.jpg,2004.300901,3
27.jpg,6670.374073,3
28.jpg,8167.619871,3
29.jpg,5668.060278,3
3.jpg,1514.280681,3
30.jpg,4242.119979,3
31.jpg,7609.27131,3
32.jpg,4687.131261,3
33.jpg,5633.326433,3
34.jpg,2347.034857,3
35.jpg,3334.908556,3
36.jpg,5309.405062,3
37.jpg,1707.800498,3
38.jpg,1346.866366,3
39.jpg,1528.571733,3
4.jpg,5851.146669,3
40.jpg,963.6414081,3
41.jpg,1290.360609,3
42.jpg,1776.225937,3
43.jpg,1360.590608,3
44.jpg,1633.109898,3
45.jpg,2863.807604,3
46.jpg,1815.279581,3
47.jpg,2452.473405,3
48.jpg,1611.042928,3
5.jpg,1328.457717,3
50.jpg,2135.318592,3
51.jpg,4718.065819,3
52.jpg,4164.524976,3
53.jpg,1545.178293,3
54.jpg,1933.548843,3
55.jpg,1466.276628,3
57.jpg,1882.077612,3
58.jpg,2060.911025,3
59.jpg,2114.857748,3
6.jpg,3764.413216,3
60.jpg,1258.898969,3
61.jpg,1213.534776,3
62.jpg,2015.609398,3
63.jpg,2488.973506,3
64.jpg,2337.702773,3
65.jpg,1913.252834,3
66.jpg,4452.6304,3
67.jpg,5051.658774,3
68.jpg,2314.382442,3
69.jpg,3440.246999,3
7.jpg,4893.356154,3
70.jpg,2175.526319,3
71.jpg,6263.139268,3
72.jpg,2869.184736,3
73.jpg,3079.326703,3
74.jpg,4381.313206,3
75.jpg,2255.966301,3
76.jpg,1881.174346,3
77.jpg,2851.034134,3
78.jpg,4261.552433,3
79.jpg,1509.740426,3
8.jpg,4167.704614,3
80.jpg,1536.227306,3
81.jpg,2500.416136,3
82.jpg,3286.303961,3
83.jpg,2370.636378,3
84.jpg,3947.579953,3
85.jpg,3823.69479,3
86.jpg,3060.776885,3
87.jpg,3041.178012,3
88.jpg,4473.734587,3
89.jpg,2724.322998,3
9.jpg,4496.40047,3
90.jpg,1636.736893,3
91.jpg,2834.265526,3
92.jpg,5263.407673,3
93.jpg,2287.293409,3
94.jpg,2569.46705,3
95.jpg,2270.463021,3
96.jpg,3038.103579,3
97.jpg,2664.354954,3
98.jpg,1845.020297,3
99.jpg,1887.585829,3
