ID,Hausdorf,Stress
0.jpg,7.929829613,3
1.jpg,37.96732457,3
10.jpg,13.82993694,3
100.jpg,60.16666746,3
108.jpg,52.55463283,3
109.jpg,42.69251936,3
11.jpg,7.834514629,3
110.jpg,25.16883494,3
115.jpg,52.17313249,3
116.jpg,65.54003053,3
117.jpg,56.16987208,3
119.jpg,6.875805512,3
12.jpg,14.16646864,3
121.jpg,62.16508542,3
122.jpg,65.16423203,3
123.jpg,9.166611392,3
125.jpg,21.04970878,3
129.jpg,37.16296029,3
13.jpg,65.16821607,3
130.jpg,53.16743857,3
131.jpg,28.17354684,3
132.jpg,9.433229962,3
133.jpg,11.14145454,3
134.jpg,9.166611392,3
135.jpg,67.48574113,3
137.jpg,32.89933515,3
138.jpg,0.769652589,3
139.jpg,22.8231784,3
14.jpg,24.82429852,3
142.jpg,26.82493691,3
143.jpg,3.827746705,3
147.jpg,24.82429852,3
148.jpg,35.1693354,3
151.jpg,14.16646864,3
153.jpg,16.30478479,3
154.jpg,27.8476561,3
157.jpg,29.16314761,3
159.jpg,16.8243846,3
161.jpg,0.863654683,3
162.jpg,22.01785801,3
165.jpg,43.16920168,3
166.jpg,52.17313249,3
169.jpg,12.64747517,3
173.jpg,67.16899164,3
174.jpg,20.09291639,3
175.jpg,27.82673398,3
18.jpg,57.16428653,3
19.jpg,0.863654683,3
27.jpg,0.769652589,3
28.jpg,45.16917566,3
29.jpg,41.16445908,3
31.jpg,17.51611611,3
4.jpg,20.34671025,3
45.jpg,10.82518453,3
50.jpg,19.13047136,3
51.jpg,0.863654683,3
54.jpg,46.6390694,3
55.jpg,54.53770872,3
57.jpg,31.7707976,3
58.jpg,57.54017914,3
6.jpg,1.829585433,3
62.jpg,54.61042603,3
63.jpg,68.17301834,3
64.jpg,34.71689716,3
65.jpg,37.68831565,3
66.jpg,21.26700687,3
68.jpg,46.59097908,3
69.jpg,3.827746705,3
7.jpg,4.178723325,3
71.jpg,60.53210552,3
72.jpg,21.82981786,3
74.jpg,15.36717176,3
75.jpg,65.54003053,3
76.jpg,52.55463283,3
77.jpg,22.93823984,3
78.jpg,23.15761291,3
8.jpg,4.829321637,3
80.jpg,6.376196752,3
81.jpg,8.719751088,3
82.jpg,64.16981575,3
84.jpg,12.39342686,3
85.jpg,69.47928383,3
86.jpg,60.16824843,3
87.jpg,28.02279681,3
88.jpg,35.1693354,3
89.jpg,38.80059025,3
9.jpg,30.7804264,3
90.jpg,41.63733036,3
94.jpg,39.1668936,3
99.jpg,10.07487183,3
10.jpg,72.95771074,2
100.jpg,32.68190051,2
101.jpg,44.02753824,2
102.jpg,24.88125726,2
103.jpg,15.98067941,2
105.jpg,69.95677386,2
107.jpg,69.95677386,2
108.jpg,23.31990036,2
109.jpg,47.96648214,2
11.jpg,8.807032697,2
110.jpg,82.2507244,2
111.jpg,34.09906103,2
112.jpg,33.1062733,2
114.jpg,26.81537446,2
115.jpg,50.96858105,2
116.jpg,25.25843407,2
117.jpg,50.45695766,2
118.jpg,15.67763973,2
12.jpg,80.11258269,2
120.jpg,17.26404659,2
121.jpg,44.02753824,2
122.jpg,63.37270572,2
123.jpg,36.97831058,2
124.jpg,45.96330986,2
125.jpg,75.9621206,2
127.jpg,83.15427945,2
128.jpg,8.564726008,2
129.jpg,21.99033935,2
13.jpg,80.11258269,2
130.jpg,18.98464619,2
131.jpg,0.859657505,2
132.jpg,64.96568822,2
133.jpg,14.51169718,2
134.jpg,63.96191547,2
135.jpg,8.564726008,2
138.jpg,18.98464619,2
139.jpg,18.98464619,2
14.jpg,16.98366183,2
140.jpg,29.97348189,2
142.jpg,57.96491313,2
143.jpg,82.2507244,2
145.jpg,32.68190051,2
147.jpg,51.98408951,2
148.jpg,56.96758101,2
149.jpg,33.1062733,2
15.jpg,0.859657505,2
150.jpg,61.38813706,2
152.jpg,50.45695766,2
153.jpg,15.67763973,2
154.jpg,10.89724666,2
155.jpg,36.61436695,2
156.jpg,44.51560849,2
157.jpg,26.23712396,2
158.jpg,7.238095173,2
159.jpg,77.32059694,2
16.jpg,32.68190051,2
160.jpg,14.51169718,2
162.jpg,29.97348189,2
163.jpg,20.42379181,2
164.jpg,43.02743566,2
165.jpg,21.2898879,2
166.jpg,31.97561865,2
167.jpg,26.81537446,2
168.jpg,26.23712396,2
169.jpg,49.46741218,2
17.jpg,20.90018981,2
170.jpg,7.222644861,2
171.jpg,26.23712396,2
172.jpg,49.46741218,2
173.jpg,7.222644861,2
174.jpg,56.44795064,2
175.jpg,34.97644129,2
176.jpg,13.85613504,2
177.jpg,34.09906103,2
178.jpg,51.98712936,2
179.jpg,29.97348189,2
18.jpg,0.859657505,2
180.jpg,28.19913146,2
181.jpg,8.807032697,2
182.jpg,67.96347743,2
184.jpg,36.08582309,2
185.jpg,87.49804479,2
186.jpg,82.92265496,2
187.jpg,54.97310914,2
188.jpg,15.98067941,2
189.jpg,79.11506686,2
19.jpg,13.98803684,2
190.jpg,12.92561522,2
191.jpg,33.1062733,2
192.jpg,11.15562114,2
193.jpg,57.96491313,2
194.jpg,66.96447612,2
195.jpg,80.94742388,2
197.jpg,49.99040167,2
198.jpg,34.09906103,2
199.jpg,73.96164524,2
2.jpg,48.00948269,2
20.jpg,20.42379181,2
200.jpg,66.96447612,2
201.jpg,55.97507912,2
202.jpg,15.89472836,2
203.jpg,7.275020314,2
204.jpg,20.42379181,2
205.jpg,8.564726008,2
206.jpg,66.96608223,2
207.jpg,71.95066658,2
208.jpg,22.35162634,2
209.jpg,76.96600248,2
21.jpg,26.23712396,2
210.jpg,15.62814894,2
211.jpg,33.1062733,2
212.jpg,56.96108199,2
213.jpg,47.96648214,2
214.jpg,8.564726008,2
215.jpg,66.96608223,2
216.jpg,7.391290399,2
217.jpg,36.08582309,2
218.jpg,73.96164524,2
219.jpg,20.40433283,2
22.jpg,41.03806878,2
220.jpg,28.19913146,2
222.jpg,69.96145686,2
223.jpg,30.72474337,2
224.jpg,82.2507244,2
225.jpg,73.96164524,2
23.jpg,44.97409777,2
24.jpg,45.96330986,2
25.jpg,29.97348189,2
26.jpg,75.96133354,2
27.jpg,20.40433283,2
28.jpg,20.90018981,2
29.jpg,37.96732457,2
3.jpg,65.96308104,2
30.jpg,43.63120801,2
31.jpg,85.43341903,2
32.jpg,19.13419846,2
33.jpg,81.15906758,2
34.jpg,54.97310914,2
35.jpg,7.98395684,2
36.jpg,41.54562791,2
37.jpg,20.07825022,2
38.jpg,15.42287414,2
4.jpg,10.29059066,2
40.jpg,6.823327555,2
41.jpg,19.13419846,2
42.jpg,54.97830659,2
43.jpg,25.25843407,2
44.jpg,23.90781816,2
45.jpg,23.41659508,2
46.jpg,26.81537446,2
47.jpg,38.58862863,2
49.jpg,6.272386718,2
5.jpg,75.96133354,2
50.jpg,73.96164524,2
51.jpg,23.97958845,2
54.jpg,49.99040167,2
55.jpg,19.13419846,2
56.jpg,8.807032697,2
59.jpg,45.50309916,2
6.jpg,71.95066658,2
61.jpg,34.97644129,2
62.jpg,56.96758101,2
63.jpg,46.49897487,2
64.jpg,11.29765275,2
65.jpg,50.45695766,2
69.jpg,80.94742388,2
7.jpg,62.9653068,2
70.jpg,20.98867267,2
71.jpg,10.29059066,2
72.jpg,20.98867267,2
73.jpg,14.51169718,2
74.jpg,11.2883721,2
76.jpg,64.9591888,2
77.jpg,19.13419846,2
78.jpg,71.96039356,2
sd10_20x3L.png,24.1712799,1
sd10_20x4L.png,12.75942529,1
sd11_20x1aL.png,36.17334763,1
sd11_20x1bL.png,16.8243846,1
sd11_20x2aL.png,8.154951121,1
sd11_20x2cL.png,21.58087433,1
sd11_20x3aL.png,15.23829439,1
sd11_20x3bL.png,46.58194898,1
sd11_20x3cL.png,28.35370951,1
sd12_20x3L.png,11.51878743,1
sd12_20x4L.png,4.690691697,1
sd12_20x5aL.png,33.76814525,1
sd12_20x5L.png,20.6446584,1
sd12_20x6aL.png,41.06998587,1
sd13_20x1L.png,24.07259103,1
sd13_20x2L.png,56.07410836,1
sd13_20x3L.png,15.65066017,1
sd13_20x4L.png,33.76814525,1
sd13_20x5L.png,36.71053866,1
sd13_20x6L.png,20.11950893,1
sd1_20x10L.png0.jpg,21.07442567,1
sd1_20x10L.png189.jpg,21.07442567,1
sd1_20x10L.tiff191.jpg,21.07442567,1
sd1_20x11L.png194.jpg,20.07198828,1
sd1_20x11L.png2.jpg,20.07198828,1
sd1_20x11L.tiff196.jpg,20.07198828,1
sd1_20x12L.png199.jpg,13.08374523,1
sd1_20x12L.png4.jpg,13.08374523,1
sd1_20x12L.tiff201.jpg,13.08374523,1
sd1_20x13L.png204.jpg,48.43441807,1
sd1_20x13L.png6.jpg,48.43441807,1
sd1_20x13L.tiff206.jpg,48.43441807,1
sd1_20x15L.png16.jpg,13.93434501,1
sd1_20x15L.png222.jpg,13.93434501,1
sd1_20x15L.tiff224.jpg,13.93434501,1
sd1_20x1L.png20.jpg,5.07935679,1
sd1_20x1L.png232.jpg,5.07935679,1
sd1_20x1L.tiff234.jpg,5.07935679,1
sd1_20x2L.png22.jpg,1.432855641,1
sd1_20x2L.png239.jpg,1.432855641,1
sd1_20x2L.tiff241.jpg,1.432855641,1
sd1_20x3L.png24.jpg,51.35868441,1
sd1_20x3L.png244.jpg,51.35868441,1
sd1_20x3L.tiff246.jpg,51.35868441,1
sd1_20x4L.png251.jpg,13.64742,1
sd1_20x4L.png28.jpg,13.64742,1
sd1_20x4L.tiff253.jpg,13.64742,1
sd1_20x5L.png258.jpg,35.07216141,1
sd1_20x5L.png30.jpg,35.07216141,1
sd1_20x5L.tiff260.jpg,35.07216141,1
sd1_20x6L.png263.jpg,19.64743509,1
sd1_20x6L.png32.jpg,19.64743509,1
sd1_20x6L.tiff265.jpg,19.64743509,1
sd1_20x7L.png268.jpg,12.65315196,1
sd1_20x7L.png270.jpg,2.273980908,1
sd1_20x7L.png34.jpg,12.65315196,1
sd1_20x7L.png36.jpg,2.273980908,1
sd1_20x7L.tiff272.jpg,2.273980908,1
sd1_20x7L.tiff274.jpg,12.65315196,1
sd1_20x8L.png277.jpg,7.669165574,1
sd1_20x8L.png281.jpg,21.51449777,1
sd1_20x8L.png38.jpg,7.669165574,1
sd1_20x8L.png42.jpg,21.51449777,1
sd1_20x8L.tiff283.jpg,21.51449777,1
sd1_20x8L.tiff287.jpg,7.669165574,1
sd1_20x9L.png290.jpg,1.079234586,1
sd1_20x9L.png44.jpg,1.079234586,1
sd1_20x9L.tiff292.jpg,1.079234586,1
sd2_20x10L.png312.jpg,51.35868441,1
sd2_20x10L.png46.jpg,51.35868441,1
sd2_20x10L.tiff314.jpg,51.35868441,1
sd2_20x2L.png321.jpg,33.76814525,1
sd2_20x2L.png323.jpg,20.6446584,1
sd2_20x2L.png50.jpg,33.76814525,1
sd2_20x2L.png52.jpg,20.6446584,1
sd2_20x2L.tiff325.jpg,20.6446584,1
sd2_20x2L.tiff327.jpg,33.76814525,1
sd2_20x3L.png330.jpg,35.74130828,1
sd2_20x3L.png54.jpg,35.74130828,1
sd2_20x3L.tiff332.jpg,35.74130828,1
sd2_20x4L.png335.jpg,12.65315196,1
sd2_20x4L.png337.jpg,18.644025,1
sd2_20x4L.png56.jpg,12.65315196,1
sd2_20x4L.png58.jpg,18.644025,1
sd2_20x4L.tiff339.jpg,18.644025,1
sd2_20x4L.tiff341.jpg,12.65315196,1
sd2_20x5L.png346.jpg,16.6458119,1
sd2_20x5L.png62.jpg,16.6458119,1
sd2_20x5L.tiff348.jpg,16.6458119,1
sd2_20x6L.png353.jpg,52.52107922,1
sd2_20x6L.png355.jpg,7.85478045,1
sd2_20x6L.png64.jpg,52.52107922,1
sd2_20x6L.png66.jpg,7.85478045,1
sd2_20x6L.tiff361.jpg,7.85478045,1
sd2_20x6L.tiff363.jpg,52.52107922,1
sd2_20x7L.png372.jpg,18.07510234,1
sd2_20x7L.png74.jpg,18.07510234,1
sd2_20x7L.tiff376.jpg,18.07510234,1
sd2_20x8L.png383.jpg,0.654293259,1
sd2_20x8L.png80.jpg,0.654293259,1
sd2_20x8L.tiff385.jpg,0.654293259,1
sd2_20x9L.png82.jpg,48.43441807,1
sd3_20x10L.png0.jpg,52.52107922,1
sd3_20x1L.png2.jpg,4.081712883,1
